<?xml version="1.0" standalone="no"?>
<!DOCTYPE svg PUBLIC "-//W3C//DTD SVG 20010904//EN"
 "http://www.w3.org/TR/2001/REC-SVG-20010904/DTD/svg10.dtd">
<svg version="1.0" xmlns="http://www.w3.org/2000/svg"
 width="640.000000pt" height="640.000000pt" viewBox="0 0 640.000000 640.000000"
 preserveAspectRatio="xMidYMid meet">
<metadata>
Created by potrace 1.14, written by Peter Selinger 2001-2017
</metadata>
<g transform="translate(0.000000,640.000000) scale(0.100000,-0.100000)"
fill="#000000" stroke="none">
<path d="M4110 6318 c-19 -13 -36 -26 -38 -30 -2 -5 -9 -8 -16 -8 -21 0 -219
-160 -301 -244 -111 -113 -157 -166 -235 -276 -67 -94 -78 -111 -152 -245
-100 -180 -195 -439 -233 -640 -5 -22 -10 -47 -12 -55 -1 -8 -5 -40 -8 -70 -8
-75 -10 -89 -16 -95 -3 -3 -30 -7 -60 -10 -30 -3 -65 -7 -79 -10 -14 -3 -36
-8 -50 -11 -14 -3 -36 -7 -50 -10 -51 -10 -217 -67 -288 -99 -83 -39 -228
-125 -272 -162 l-30 -25 -38 28 c-20 15 -38 28 -39 29 -1 0 -9 28 -17 61 -49
192 -53 408 -11 603 8 41 14 75 12 77 -4 4 -134 -63 -169 -87 -14 -11 -31 -19
-37 -19 -6 0 -11 -4 -11 -10 0 -5 -7 -10 -15 -10 -8 0 -15 -4 -15 -9 0 -5 -9
-13 -20 -16 -11 -3 -26 -12 -32 -18 -7 -7 -49 -39 -93 -72 -44 -33 -87 -67
-96 -75 -83 -78 -133 -127 -182 -179 -47 -49 -61 -59 -71 -49 -7 7 -13 16 -14
21 -1 4 -8 22 -15 40 -20 48 -40 141 -53 247 -2 19 -6 106 -9 194 -3 87 -8
162 -10 167 -3 4 -2 10 3 13 6 3 8 46 3 64 -2 7 -102 -55 -170 -106 -86 -64
-322 -296 -394 -387 -27 -33 -54 -67 -61 -76 -20 -25 -141 -203 -149 -219 -4
-8 -16 -29 -26 -47 -117 -191 -251 -527 -287 -717 -2 -12 -6 -32 -9 -46 -4
-14 -8 -36 -11 -50 -2 -14 -7 -36 -9 -50 -6 -30 -11 -60 -19 -121 -4 -25 -9
-58 -12 -74 -3 -15 -7 -46 -9 -69 -2 -22 -7 -64 -10 -93 -14 -105 -7 -424 10
-508 2 -11 7 -42 9 -70 5 -45 15 -104 31 -190 29 -154 107 -408 177 -577 21
-51 144 -297 178 -356 47 -83 161 -252 207 -309 24 -29 43 -55 43 -58 0 -3 8
-13 18 -23 9 -10 44 -49 77 -87 139 -160 348 -350 500 -455 28 -19 52 -37 55
-40 8 -8 160 -106 210 -134 77 -44 370 -186 385 -186 4 0 21 -7 38 -15 82 -38
403 -131 517 -150 19 -3 62 -10 95 -16 33 -6 76 -13 95 -14 19 -2 62 -7 95
-11 80 -10 492 -11 580 -1 151 17 227 27 237 33 4 3 24 7 45 9 67 7 246 53
388 100 223 73 499 203 653 306 24 16 45 29 48 29 8 0 226 160 284 209 159
133 293 269 420 426 36 44 68 82 73 83 4 2 7 10 7 17 0 7 4 15 8 17 12 4 117
162 181 270 66 111 190 366 190 391 1 4 7 20 14 35 28 55 114 327 131 413 2
13 9 44 15 69 12 54 18 88 26 160 4 30 9 67 10 81 30 230 23 575 -15 824 -6
39 -13 85 -16 104 -2 19 -9 52 -15 75 -5 23 -11 50 -14 61 -3 17 -13 55 -39
155 -12 45 -58 188 -66 205 -6 11 -16 38 -24 60 -21 61 -65 151 -120 245 -43
75 -122 196 -136 210 -3 3 -31 37 -62 75 -68 83 -164 176 -234 228 -29 20 -54
37 -57 37 -8 0 -2 -22 15 -55 9 -16 37 -79 62 -140 26 -60 51 -119 56 -130 10
-23 70 -199 75 -223 3 -9 13 -51 24 -92 26 -95 60 -250 55 -250 -5 0 -56 118
-54 126 1 4 -3 10 -8 13 -5 3 -22 33 -37 66 -54 113 -242 416 -300 481 -5 6
-21 26 -35 44 -47 62 -114 145 -174 215 -34 38 -72 83 -86 99 -14 16 -36 41
-50 56 -14 16 -47 54 -75 86 -27 31 -57 65 -65 74 -8 10 -33 39 -55 65 -22 26
-48 57 -58 69 -11 11 -33 38 -50 60 -18 21 -42 49 -54 62 -13 13 -23 26 -23
29 0 3 -31 44 -68 93 -38 48 -97 130 -132 182 -34 52 -71 107 -81 122 -18 26
-40 63 -84 143 -12 22 -30 64 -40 93 -11 28 -24 52 -29 52 -6 0 -27 -10 -46
-22z"/>
</g>
</svg>
